…
--- relaxed LASSO (skip-gram terms) ---
# A tibble: 33 × 5
   term       estimate std.error statistic  p.value
   <chr>         <dbl>     <dbl>     <dbl>    <dbl>
 1 lol           0.439    0.0646      6.80 1.05e-11
 2 sorry         0.316    0.0634      4.98 6.26e- 7
 3 irrelevant    0.257    0.0733      3.50 4.58e- 4
 4 please        0.235    0.0549      4.28 1.91e- 5
 5 comment       0.206    0.0490      4.21 2.55e- 5
 6 read          0.182    0.0403      4.51 6.62e- 6
 7 arguments     0.180    0.0556      3.24 1.21e- 3
 8 literally     0.178    0.0363      4.89 1.03e- 6
 9 yeah          0.159    0.0531      2.99 2.78e- 3
10 shit          0.157    0.0455      3.46 5.40e- 4
# ℹ 23 more rows
# ℹ Use `print(n = ...)` to see more rows
